[gd_scene load_steps=3 format=2]

[ext_resource path="res://player/player.gd" type="Script" id=1]

[sub_resource type="CircleShape2D" id=1]

custom_solver_bias = 0.0
radius = 10.0

[node name="Player" type="KinematicBody2D"]

input_pickable = false
collision_layer = 1
collision_mask = 1
collision/safe_margin = 0.08
script = ExtResource( 1 )

[node name="CollisionShape2D" type="CollisionShape2D" parent="."]

shape = SubResource( 1 )

[node name="Polygon2D" type="Polygon2D" parent="."]

polygon = PoolVector2Array( 0.0200481, -10.0247, -2.41958, -9.6762, -4.98368, -8.60575, -6.97522, -7.0872, -8.56845, -5.17035, -9.68869, -2.55646, -9.96252, 0.00763893, -9.64169, 2.62337, -8.65971, 5.00434, -7.05894, 7.10283, -5.00081, 8.63634, -2.60638, 9.68558, -0.023632, 10.0084, 2.47841, 9.69903, 5.12842, 8.67669, 7.14619, 7.04902, 8.73025, 4.99116, 9.70147, 2.58739, 10.0414, 0.00150871, 9.65291, -2.64507, 8.64527, -5.08527, 6.98205, -7.13697, 5.0396, -8.69093, 2.64797, -9.68643 )
uv = PoolVector2Array(  )
color = Color( 1, 1, 1, 1 )
vertex_colors = PoolColorArray(  )
offset = Vector2( 0, 0 )
antialiased = false
texture = null
texture_offset = Vector2( 0, 0 )
texture_scale = Vector2( 1, 1 )
texture_rotation = 0.0
invert_enable = false
invert_border = 100.0


