[gd_scene load_steps=2 format=2]

[ext_resource path="res://uv/uv-tiles.png" type="Texture" id=1]

[node name="Tiles" type="Node2D"]

[node name="H1" type="Sprite" parent="."]

position = Vector2( 32, 32 )
texture = ExtResource( 1 )
centered = false
offset = Vector2( -128, -32 )
region_enabled = true
region_rect = Rect2( 0, 0, 256, 64 )
_sections_unfolded = [ "Offset", "Region", "Transform" ]

[node name="H2" type="Sprite" parent="."]

position = Vector2( 96, 32 )
texture = ExtResource( 1 )
centered = false
offset = Vector2( -128, -32 )
region_enabled = true
region_rect = Rect2( 64, 0, 256, 64 )
_sections_unfolded = [ "Offset", "Region", "Transform" ]

[node name="H3" type="Sprite" parent="."]

position = Vector2( 160, 32 )
texture = ExtResource( 1 )
centered = false
offset = Vector2( -128, -32 )
region_enabled = true
region_rect = Rect2( 128, 0, 256, 64 )
_sections_unfolded = [ "Offset", "Region" ]

[node name="H4" type="Sprite" parent="."]

position = Vector2( 224, 32 )
texture = ExtResource( 1 )
centered = false
offset = Vector2( -128, -32 )
region_enabled = true
region_rect = Rect2( 192, 0, 256, 64 )
_sections_unfolded = [ "Offset", "Region" ]

[node name="G1" type="Sprite" parent="."]

position = Vector2( 32, 96 )
texture = ExtResource( 1 )
centered = false
offset = Vector2( -128, -32 )
region_enabled = true
region_rect = Rect2( 0, 64, 256, 64 )
_sections_unfolded = [ "Offset", "Region", "Transform" ]

[node name="G2" type="Sprite" parent="."]

position = Vector2( 96, 96 )
texture = ExtResource( 1 )
centered = false
offset = Vector2( -128, -32 )
region_enabled = true
region_rect = Rect2( 64, 64, 256, 64 )
_sections_unfolded = [ "Offset", "Region", "Transform" ]

[node name="G3" type="Sprite" parent="."]

position = Vector2( 160, 96 )
texture = ExtResource( 1 )
centered = false
offset = Vector2( -128, -32 )
region_enabled = true
region_rect = Rect2( 128, 64, 256, 64 )
_sections_unfolded = [ "Offset", "Region" ]

[node name="G4" type="Sprite" parent="."]

position = Vector2( 224, 96 )
texture = ExtResource( 1 )
centered = false
offset = Vector2( -128, -32 )
region_enabled = true
region_rect = Rect2( 192, 64, 256, 64 )
_sections_unfolded = [ "Offset", "Region" ]


