[gd_resource type="TileSet" load_steps=2 format=2]

[ext_resource path="res://uv/uv-tiles.png" type="Texture" id=1]

[resource]

0/name = "H1"
0/texture = ExtResource( 1 )
0/tex_offset = Vector2( -64, -32 )
0/modulate = Color( 1, 1, 1, 1 )
0/region = Rect2( 0, 0, 128, 64 )
0/is_autotile = false
0/occluder_offset = Vector2( 0, 0 )
0/navigation_offset = Vector2( 0, 0 )
0/shapes = [  ]
1/name = "H2"
1/texture = ExtResource( 1 )
1/tex_offset = Vector2( -64, -32 )
1/modulate = Color( 1, 1, 1, 1 )
1/region = Rect2( 64, 0, 128, 64 )
1/is_autotile = false
1/occluder_offset = Vector2( 0, 0 )
1/navigation_offset = Vector2( 0, 0 )
1/shapes = [  ]
2/name = "H3"
2/texture = ExtResource( 1 )
2/tex_offset = Vector2( -64, -32 )
2/modulate = Color( 1, 1, 1, 1 )
2/region = Rect2( 128, 0, 128, 64 )
2/is_autotile = false
2/occluder_offset = Vector2( 0, 0 )
2/navigation_offset = Vector2( 0, 0 )
2/shapes = [  ]
3/name = "H4"
3/texture = ExtResource( 1 )
3/tex_offset = Vector2( -64, -32 )
3/modulate = Color( 1, 1, 1, 1 )
3/region = Rect2( 192, 0, 128, 64 )
3/is_autotile = false
3/occluder_offset = Vector2( 0, 0 )
3/navigation_offset = Vector2( 0, 0 )
3/shapes = [  ]
4/name = "H5"
4/texture = ExtResource( 1 )
4/tex_offset = Vector2( -64, -32 )
4/modulate = Color( 1, 1, 1, 1 )
4/region = Rect2( 256, 0, 128, 64 )
4/is_autotile = false
4/occluder_offset = Vector2( 0, 0 )
4/navigation_offset = Vector2( 0, 0 )
4/shapes = [  ]
5/name = "H6"
5/texture = ExtResource( 1 )
5/tex_offset = Vector2( -64, -32 )
5/modulate = Color( 1, 1, 1, 1 )
5/region = Rect2( 320, 0, 128, 64 )
5/is_autotile = false
5/occluder_offset = Vector2( 0, 0 )
5/navigation_offset = Vector2( 0, 0 )
5/shapes = [  ]
6/name = "H7"
6/texture = ExtResource( 1 )
6/tex_offset = Vector2( -64, -32 )
6/modulate = Color( 1, 1, 1, 1 )
6/region = Rect2( 384, 0, 128, 64 )
6/is_autotile = false
6/occluder_offset = Vector2( 0, 0 )
6/navigation_offset = Vector2( 0, 0 )
6/shapes = [  ]
7/name = "G1"
7/texture = ExtResource( 1 )
7/tex_offset = Vector2( -64, -32 )
7/modulate = Color( 1, 1, 1, 1 )
7/region = Rect2( 0, 64, 128, 64 )
7/is_autotile = false
7/occluder_offset = Vector2( 0, 0 )
7/navigation_offset = Vector2( 0, 0 )
7/shapes = [  ]
8/name = "G2"
8/texture = ExtResource( 1 )
8/tex_offset = Vector2( -64, -32 )
8/modulate = Color( 1, 1, 1, 1 )
8/region = Rect2( 64, 64, 128, 64 )
8/is_autotile = false
8/occluder_offset = Vector2( 0, 0 )
8/navigation_offset = Vector2( 0, 0 )
8/shapes = [  ]
9/name = "G3"
9/texture = ExtResource( 1 )
9/tex_offset = Vector2( -64, -32 )
9/modulate = Color( 1, 1, 1, 1 )
9/region = Rect2( 128, 64, 128, 64 )
9/is_autotile = false
9/occluder_offset = Vector2( 0, 0 )
9/navigation_offset = Vector2( 0, 0 )
9/shapes = [  ]
10/name = "G4"
10/texture = ExtResource( 1 )
10/tex_offset = Vector2( -64, -32 )
10/modulate = Color( 1, 1, 1, 1 )
10/region = Rect2( 192, 64, 128, 64 )
10/is_autotile = false
10/occluder_offset = Vector2( 0, 0 )
10/navigation_offset = Vector2( 0, 0 )
10/shapes = [  ]
11/name = "G5"
11/texture = ExtResource( 1 )
11/tex_offset = Vector2( -64, -32 )
11/modulate = Color( 1, 1, 1, 1 )
11/region = Rect2( 256, 64, 128, 64 )
11/is_autotile = false
11/occluder_offset = Vector2( 0, 0 )
11/navigation_offset = Vector2( 0, 0 )
11/shapes = [  ]
12/name = "G6"
12/texture = ExtResource( 1 )
12/tex_offset = Vector2( -64, -32 )
12/modulate = Color( 1, 1, 1, 1 )
12/region = Rect2( 320, 64, 128, 64 )
12/is_autotile = false
12/occluder_offset = Vector2( 0, 0 )
12/navigation_offset = Vector2( 0, 0 )
12/shapes = [  ]
13/name = "G7"
13/texture = ExtResource( 1 )
13/tex_offset = Vector2( -64, -32 )
13/modulate = Color( 1, 1, 1, 1 )
13/region = Rect2( 384, 64, 128, 64 )
13/is_autotile = false
13/occluder_offset = Vector2( 0, 0 )
13/navigation_offset = Vector2( 0, 0 )
13/shapes = [  ]

