[gd_resource type="TileSet" load_steps=2 format=2]

[ext_resource path="res://uv/uv-tiles.png" type="Texture" id=1]

[resource]

0/name = "H1"
0/texture = ExtResource( 1 )
0/tex_offset = Vector2( 0, -64 )
0/modulate = Color( 1, 1, 1, 1 )
0/region = Rect2( 0, 0, 64, 64 )
0/is_autotile = false
0/occluder_offset = Vector2( 0, 0 )
0/navigation_offset = Vector2( 0, 0 )
0/shapes = [  ]
1/name = "H2"
1/texture = ExtResource( 1 )
1/tex_offset = Vector2( 0, -64 )
1/modulate = Color( 1, 1, 1, 1 )
1/region = Rect2( 64, 0, 64, 64 )
1/is_autotile = false
1/occluder_offset = Vector2( 0, 0 )
1/navigation_offset = Vector2( 0, 0 )
1/shapes = [  ]
2/name = "H3"
2/texture = ExtResource( 1 )
2/tex_offset = Vector2( 0, -64 )
2/modulate = Color( 1, 1, 1, 1 )
2/region = Rect2( 128, 0, 64, 64 )
2/is_autotile = false
2/occluder_offset = Vector2( 0, 0 )
2/navigation_offset = Vector2( 0, 0 )
2/shapes = [  ]
3/name = "H4"
3/texture = ExtResource( 1 )
3/tex_offset = Vector2( 0, -64 )
3/modulate = Color( 1, 1, 1, 1 )
3/region = Rect2( 192, 0, 64, 64 )
3/is_autotile = false
3/occluder_offset = Vector2( 0, 0 )
3/navigation_offset = Vector2( 0, 0 )
3/shapes = [  ]
4/name = "H5"
4/texture = ExtResource( 1 )
4/tex_offset = Vector2( 0, -64 )
4/modulate = Color( 1, 1, 1, 1 )
4/region = Rect2( 256, 0, 64, 64 )
4/is_autotile = false
4/occluder_offset = Vector2( 0, 0 )
4/navigation_offset = Vector2( 0, 0 )
4/shapes = [  ]
5/name = "H6"
5/texture = ExtResource( 1 )
5/tex_offset = Vector2( 0, -64 )
5/modulate = Color( 1, 1, 1, 1 )
5/region = Rect2( 320, 0, 64, 64 )
5/is_autotile = false
5/occluder_offset = Vector2( 0, 0 )
5/navigation_offset = Vector2( 0, 0 )
5/shapes = [  ]
6/name = "H7"
6/texture = ExtResource( 1 )
6/tex_offset = Vector2( 0, -64 )
6/modulate = Color( 1, 1, 1, 1 )
6/region = Rect2( 384, 0, 64, 64 )
6/is_autotile = false
6/occluder_offset = Vector2( 0, 0 )
6/navigation_offset = Vector2( 0, 0 )
6/shapes = [  ]
7/name = "H8"
7/texture = ExtResource( 1 )
7/tex_offset = Vector2( 0, -64 )
7/modulate = Color( 1, 1, 1, 1 )
7/region = Rect2( 448, 0, 64, 64 )
7/is_autotile = false
7/occluder_offset = Vector2( 0, 0 )
7/navigation_offset = Vector2( 0, 0 )
7/shapes = [  ]
8/name = "G1"
8/texture = ExtResource( 1 )
8/tex_offset = Vector2( 0, -64 )
8/modulate = Color( 1, 1, 1, 1 )
8/region = Rect2( 0, 64, 64, 64 )
8/is_autotile = false
8/occluder_offset = Vector2( 0, 0 )
8/navigation_offset = Vector2( 0, 0 )
8/shapes = [  ]
9/name = "G2"
9/texture = ExtResource( 1 )
9/tex_offset = Vector2( 0, -64 )
9/modulate = Color( 1, 1, 1, 1 )
9/region = Rect2( 64, 64, 64, 64 )
9/is_autotile = false
9/occluder_offset = Vector2( 0, 0 )
9/navigation_offset = Vector2( 0, 0 )
9/shapes = [  ]
10/name = "G3"
10/texture = ExtResource( 1 )
10/tex_offset = Vector2( 0, -64 )
10/modulate = Color( 1, 1, 1, 1 )
10/region = Rect2( 128, 64, 64, 64 )
10/is_autotile = false
10/occluder_offset = Vector2( 0, 0 )
10/navigation_offset = Vector2( 0, 0 )
10/shapes = [  ]
11/name = "G4"
11/texture = ExtResource( 1 )
11/tex_offset = Vector2( 0, -64 )
11/modulate = Color( 1, 1, 1, 1 )
11/region = Rect2( 192, 64, 64, 64 )
11/is_autotile = false
11/occluder_offset = Vector2( 0, 0 )
11/navigation_offset = Vector2( 0, 0 )
11/shapes = [  ]
12/name = "G5"
12/texture = ExtResource( 1 )
12/tex_offset = Vector2( 0, -64 )
12/modulate = Color( 1, 1, 1, 1 )
12/region = Rect2( 256, 64, 64, 64 )
12/is_autotile = false
12/occluder_offset = Vector2( 0, 0 )
12/navigation_offset = Vector2( 0, 0 )
12/shapes = [  ]
13/name = "G6"
13/texture = ExtResource( 1 )
13/tex_offset = Vector2( 0, -64 )
13/modulate = Color( 1, 1, 1, 1 )
13/region = Rect2( 320, 64, 64, 64 )
13/is_autotile = false
13/occluder_offset = Vector2( 0, 0 )
13/navigation_offset = Vector2( 0, 0 )
13/shapes = [  ]
14/name = "G7"
14/texture = ExtResource( 1 )
14/tex_offset = Vector2( 0, -64 )
14/modulate = Color( 1, 1, 1, 1 )
14/region = Rect2( 384, 64, 64, 64 )
14/is_autotile = false
14/occluder_offset = Vector2( 0, 0 )
14/navigation_offset = Vector2( 0, 0 )
14/shapes = [  ]
15/name = "G8"
15/texture = ExtResource( 1 )
15/tex_offset = Vector2( 0, -64 )
15/modulate = Color( 1, 1, 1, 1 )
15/region = Rect2( 448, 64, 64, 64 )
15/is_autotile = false
15/occluder_offset = Vector2( 0, 0 )
15/navigation_offset = Vector2( 0, 0 )
15/shapes = [  ]
16/name = "F1"
16/texture = ExtResource( 1 )
16/tex_offset = Vector2( 0, -64 )
16/modulate = Color( 1, 1, 1, 1 )
16/region = Rect2( 0, 128, 64, 64 )
16/is_autotile = false
16/occluder_offset = Vector2( 0, 0 )
16/navigation_offset = Vector2( 0, 0 )
16/shapes = [  ]
17/name = "F2"
17/texture = ExtResource( 1 )
17/tex_offset = Vector2( 0, -64 )
17/modulate = Color( 1, 1, 1, 1 )
17/region = Rect2( 64, 128, 64, 64 )
17/is_autotile = false
17/occluder_offset = Vector2( 0, 0 )
17/navigation_offset = Vector2( 0, 0 )
17/shapes = [  ]
18/name = "F3"
18/texture = ExtResource( 1 )
18/tex_offset = Vector2( 0, -64 )
18/modulate = Color( 1, 1, 1, 1 )
18/region = Rect2( 128, 128, 64, 64 )
18/is_autotile = false
18/occluder_offset = Vector2( 0, 0 )
18/navigation_offset = Vector2( 0, 0 )
18/shapes = [  ]
19/name = "F4"
19/texture = ExtResource( 1 )
19/tex_offset = Vector2( 0, -64 )
19/modulate = Color( 1, 1, 1, 1 )
19/region = Rect2( 192, 128, 64, 64 )
19/is_autotile = false
19/occluder_offset = Vector2( 0, 0 )
19/navigation_offset = Vector2( 0, 0 )
19/shapes = [  ]
20/name = "F5"
20/texture = ExtResource( 1 )
20/tex_offset = Vector2( 0, -64 )
20/modulate = Color( 1, 1, 1, 1 )
20/region = Rect2( 256, 128, 64, 64 )
20/is_autotile = false
20/occluder_offset = Vector2( 0, 0 )
20/navigation_offset = Vector2( 0, 0 )
20/shapes = [  ]
21/name = "F6"
21/texture = ExtResource( 1 )
21/tex_offset = Vector2( 0, -64 )
21/modulate = Color( 1, 1, 1, 1 )
21/region = Rect2( 320, 128, 64, 64 )
21/is_autotile = false
21/occluder_offset = Vector2( 0, 0 )
21/navigation_offset = Vector2( 0, 0 )
21/shapes = [  ]
22/name = "F7"
22/texture = ExtResource( 1 )
22/tex_offset = Vector2( 0, -64 )
22/modulate = Color( 1, 1, 1, 1 )
22/region = Rect2( 384, 128, 64, 64 )
22/is_autotile = false
22/occluder_offset = Vector2( 0, 0 )
22/navigation_offset = Vector2( 0, 0 )
22/shapes = [  ]
23/name = "F8"
23/texture = ExtResource( 1 )
23/tex_offset = Vector2( 0, -64 )
23/modulate = Color( 1, 1, 1, 1 )
23/region = Rect2( 448, 128, 64, 64 )
23/is_autotile = false
23/occluder_offset = Vector2( 0, 0 )
23/navigation_offset = Vector2( 0, 0 )
23/shapes = [  ]
24/name = "E1"
24/texture = ExtResource( 1 )
24/tex_offset = Vector2( 0, -64 )
24/modulate = Color( 1, 1, 1, 1 )
24/region = Rect2( 0, 192, 64, 64 )
24/is_autotile = false
24/occluder_offset = Vector2( 0, 0 )
24/navigation_offset = Vector2( 0, 0 )
24/shapes = [  ]
25/name = "E2"
25/texture = ExtResource( 1 )
25/tex_offset = Vector2( 0, -64 )
25/modulate = Color( 1, 1, 1, 1 )
25/region = Rect2( 64, 192, 64, 64 )
25/is_autotile = false
25/occluder_offset = Vector2( 0, 0 )
25/navigation_offset = Vector2( 0, 0 )
25/shapes = [  ]
26/name = "E3"
26/texture = ExtResource( 1 )
26/tex_offset = Vector2( 0, -64 )
26/modulate = Color( 1, 1, 1, 1 )
26/region = Rect2( 128, 192, 64, 64 )
26/is_autotile = false
26/occluder_offset = Vector2( 0, 0 )
26/navigation_offset = Vector2( 0, 0 )
26/shapes = [  ]
27/name = "E4"
27/texture = ExtResource( 1 )
27/tex_offset = Vector2( 0, -64 )
27/modulate = Color( 1, 1, 1, 1 )
27/region = Rect2( 192, 192, 64, 64 )
27/is_autotile = false
27/occluder_offset = Vector2( 0, 0 )
27/navigation_offset = Vector2( 0, 0 )
27/shapes = [  ]
28/name = "E5"
28/texture = ExtResource( 1 )
28/tex_offset = Vector2( 0, -64 )
28/modulate = Color( 1, 1, 1, 1 )
28/region = Rect2( 256, 192, 64, 64 )
28/is_autotile = false
28/occluder_offset = Vector2( 0, 0 )
28/navigation_offset = Vector2( 0, 0 )
28/shapes = [  ]
29/name = "E6"
29/texture = ExtResource( 1 )
29/tex_offset = Vector2( 0, -64 )
29/modulate = Color( 1, 1, 1, 1 )
29/region = Rect2( 320, 192, 64, 64 )
29/is_autotile = false
29/occluder_offset = Vector2( 0, 0 )
29/navigation_offset = Vector2( 0, 0 )
29/shapes = [  ]
30/name = "E7"
30/texture = ExtResource( 1 )
30/tex_offset = Vector2( 0, -64 )
30/modulate = Color( 1, 1, 1, 1 )
30/region = Rect2( 384, 192, 64, 64 )
30/is_autotile = false
30/occluder_offset = Vector2( 0, 0 )
30/navigation_offset = Vector2( 0, 0 )
30/shapes = [  ]
31/name = "E8"
31/texture = ExtResource( 1 )
31/tex_offset = Vector2( 0, -64 )
31/modulate = Color( 1, 1, 1, 1 )
31/region = Rect2( 448, 192, 64, 64 )
31/is_autotile = false
31/occluder_offset = Vector2( 0, 0 )
31/navigation_offset = Vector2( 0, 0 )
31/shapes = [  ]

